{
  "project_info": {
    "project_number": "747415462681",
    "project_id": "giftplus-giftplus",
    "storage_bucket": "giftplus-giftplus.appspot.com"
  },
  "client": [
    {
      "client_info": {
        "mobilesdk_app_id": "1:747415462681:android:8f3a91381a438346769b88",
        "android_client_info": {
          "package_name": "com.giftplus"
        }
      },
      "oauth_client": [
        {
          "client_id": "747415462681-ai0j6r08iphvc7knrhvra1ouud2ubke0.apps.googleusercontent.com",
          "client_type": 1,
          "android_info": {
            "package_name": "com.giftplus",
            "certificate_hash": "5e8f16062ea3cd2c4a0d547876baa6f38cabf625"
          }
        },
        {
          "client_id": "747415462681-334depgede6hhpolhjl907c5h38bn0kn.apps.googleusercontent.com",
          "client_type": 3
        }
      ],
      "api_key": [
        {
          "current_key": "AIzaSyAD6W4mCk5CHrut0NMWNcrZTQF7ROM6Otk"
        }
      ],
      "services": {
        "appinvite_service": {
          "other_platform_oauth_client": [
            {
              "client_id": "747415462681-334depgede6hhpolhjl907c5h38bn0kn.apps.googleusercontent.com",
              "client_type": 3
            }
          ]
        }
      }
    }
  ],
  "configuration_version": "1"
}